Project 1: Wrangling, Exploration, Visualization
…
The internet_users_long dataset has 51 countries distinct from the happy_whr_long and 20 countries in its data distinct from suicide_total_long. Many of the countries unique to the internet_users_long dataset are located amongst the Pacific and the Carribbean islands.

## number of unique IDs from 'happy_whr_long'
anti_join(internet_users_long, happy_whr_long, by=c("country","year")) %>% summarize(n_distinct(country))

## # A tibble: 1 x 1
##   `n_distinct(country)`
##                   <int>
## 1                    51

## what those unique IDs are compared to 'happy_whr_long'
anti_join(internet_users_long, happy_whr_long, by=c("country","year"))

## # A tibble: 561 x 3
##    country year  internet_users
##    <chr>   <chr>          <dbl>
##  1 Aruba   2005            28  
##  2 Aruba   2006            30.9
##  3 Aruba   2007            52  
##  4 Aruba   2008            58  
##  5 Aruba   2009            62  
##  6 Aruba   2010            69  
##  7 Aruba   2011            74  
##  8 Aruba   2012            78.9
##  9 Aruba   2013            83.8
## 10 Aruba   2014            88.7
## #  with 551 more rows

## number of unique IDs form 'suicide_total_long'
anti_join(internet_users_long, suicide_total_long, by=c("country","year")) %>% summarize(n_distinct(country))

## # A tibble: 1 x 1
##   `n_distinct(country)`
##                   <int>
## 1                    20

## what those unique IDs are compared to 'suicide_total_long'
anti_join(internet_users_long, suicide_total_long, by=c("country","year"))

## # A tibble: 220 x 3
##    country year  internet_users
##    <chr>   <chr>          <dbl>
##  1 Aruba   2005            28  
##  2 Aruba   2006            30.9
##  3 Aruba   2007            52  
##  4 Aruba   2008            58  
##  5 Aruba   2009            62  
##  6 Aruba   2010            69  
##  7 Aruba   2011            74  
##  8 Aruba   2012            78.9
##  9 Aruba   2013            83.8
## 10 Aruba   2014            88.7
## #  with 210 more rows
…
## number of unique IDs from 'happy_whr_long'
anti_join(suicide_total_long, happy_whr_long, by=c("country","year")) %>% summarize(n_distinct(country))

## # A tibble: 1 x 1
##   `n_distinct(country)`
##                   <int>
## 1                    32

## what those unique IDs are compared to 'happy_whr_long'
anti_join(suicide_total_long, happy_whr_long, by=c("country","year"))

## # A tibble: 352 x 3
##    country year  total_suicides
##    <chr>   <chr>          <dbl>
##  1 Andorra 2005             719
##  2 Andorra 2006             739
##  3 Andorra 2007             753
##  4 Andorra 2008             767
##  5 Andorra 2009             776
##  6 Andorra 2010             785
##  7 Andorra 2011             792
##  8 Andorra 2012             797
##  9 Andorra 2013             772
## 10 Andorra 2014             778
## #  with 342 more rows
…
# number of id variables in common between all three datasets - \161 countries\
completejoin %>% summarize(n_distinct(country)) 

## # A tibble: 1 x 1
##   `n_distinct(country)`
##                   <int>
## 1                   161

# what country IDs are shared by all three datasets
completejoin %>% count(country)

## # A tibble: 161 x 2
##    country         n
##    <chr>       <int>
##  1 Afghanistan    11
##  2 Albania        11
##  3 Algeria        11
##  4 Angola         11
##  5 Argentina      11
##  6 Armenia        11
##  7 Australia      11
##  8 Austria        11
##  9 Azerbaijan     11
## 10 Bahrain        11
## #  with 151 more rows

# number of observations lost when removing the unique country IDs associated with the various data sets
partialfjoin <- full_join(internet_users_long, happy_whr_long, by=c("country"="year"))

full_join(partialfjoin, suicide_total_long, by=c("country","year")) # gives 4,147 observations

## # A tibble: 4,147 x 6
##    country year  internet_users country.y happiness_score total_suicides
##    <chr>   <chr>          <dbl> <chr>               <dbl>          <dbl>
##  1 Aruba   2005            28   <NA>                   NA             NA
##  2 Aruba   2006            30.9 <NA>                   NA             NA
##  3 Aruba   2007            52   <NA>                   NA             NA
##  4 Aruba   2008            58   <NA>                   NA             NA
##  5 Aruba   2009            62   <NA>                   NA             NA
##  6 Aruba   2010            69   <NA>                   NA             NA
##  7 Aruba   2011            74   <NA>                   NA             NA
##  8 Aruba   2012            78.9 <NA>                   NA             NA
##  9 Aruba   2013            83.8 <NA>                   NA             NA
## 10 Aruba   2014            88.7 <NA>                   NA             NA
## #  with 4,137 more rows
…
Summary statistics on categorical variables

Each of the 161 country IDs was observed 11 times (from the years 2005-2015). Each year was observed 161 times, once for each country.

## obtaining counts of observations for each country ID
completejoin %>% group_by(country) %>% summarize(n())

## `summarise()` ungrouping output (override with `.groups` argument)

## # A tibble: 161 x 2
##    country     `n()`
##    <chr>       <int>
##  1 Afghanistan    11
##  2 Albania        11
##  3 Algeria        11
##  4 Angola         11
##  5 Argentina      11
##  6 Armenia        11
##  7 Australia      11
##  8 Austria        11
##  9 Azerbaijan     11
## 10 Bahrain        11
## #  with 151 more rows
…
## obtaining counts of observations of each combination of country ID and year
completejoin %>% group_by(country,year) %>% summarize(n())

## `summarise()` regrouping output by 'country' (override with `.groups` argument)

## # A tibble: 1,771 x 3
## # Groups:   country [161]
##    country     year  `n()`
##    <chr>       <chr> <int>
##  1 Afghanistan 2005      1
##  2 Afghanistan 2006      1
##  3 Afghanistan 2007      1
##  4 Afghanistan 2008      1
##  5 Afghanistan 2009      1
##  6 Afghanistan 2010      1
##  7 Afghanistan 2011      1
##  8 Afghanistan 2012      1
##  9 Afghanistan 2013      1
## 10 Afghanistan 2014      1
## #  with 1,761 more rows
…
